<?xml version="1.0" encoding="utf-8"?>
<!-- Generator: Adobe Illustrator 17.0.0, SVG Export Plug-In . SVG Version: 6.00 Build 0)  -->
<!DOCTYPE svg PUBLIC "-//W3C//DTD SVG 1.1 Tiny//EN" "http://www.w3.org/Graphics/SVG/1.1/DTD/svg11-tiny.dtd">
<svg version="1.1" baseProfile="tiny" id="Layer_1" xmlns="http://www.w3.org/2000/svg" xmlns:xlink="http://www.w3.org/1999/xlink"
	 x="0px" y="0px" width="9.252px" height="9.252px" viewBox="0 0 9.252 9.252" overflow="visible" xml:space="preserve">
<polygon fill="#FFFFFF" points="9.252,3.402 5.85,3.402 5.85,0 3.402,0 3.402,3.402 0,3.402 0,5.85 3.402,5.85 3.402,9.252 
	5.85,9.252 5.85,5.85 9.252,5.85 "/>
</svg>
